<svg width="1024" height="1024" xmlns="http://www.w3.org/2000/svg">
 <defs>
  <filter height="200%" width="200%" y="-50%" x="-50%" id="svg_3_blur">
   <feGaussianBlur stdDeviation="10" in="SourceGraphic"/>
  </filter>
 </defs>
 <g>
  <title>Layer 1</title>
  <path id="svg_1" d="m512,0c282.77,0 512,229.23 512,512c0,282.77 -229.23,512 -512,512c-282.77,0 -512,-229.23 -512,-512c0,-282.77 229.23,-512 512,-512z" fill="rgb(0, 0, 0)" fill-rule="evenodd"/>
  <ellipse filter="url(#svg_3_blur)" ry="253.5" rx="253.5" id="svg_3" cy="512" cx="512" fill="rgb(255,255,255)"/>
  <ellipse ry="4" rx="49.5" id="svg_4" cy="575" cx="573.5" fill="rgb(255,255,255)"/>
 </g>
</svg>