<svg width="1024" height="1024" xmlns="http://www.w3.org/2000/svg">

 <g>
  <title>Layer 1</title>
  <path id="svg_1" d="m512,0c282.77,0 512,229.23 512,512c0,282.77 -229.23,512 -512,512c-282.77,0 -512,-229.23 -512,-512c0,-282.77 229.23,-512 512,-512z" fill="rgb(255, 255, 255)" fill-rule="evenodd"/>
  <path stroke="#000000" id="svg_3" d="m512,728.5c-126.79558,0 -229.5,-96.88674 -229.5,-216.5c0,-119.61326 102.70442,-216.5 229.5,-216.5c126.79558,0 229.5,96.88674 229.5,216.5c0,119.61326 -102.70442,216.5 -229.5,216.5z" opacity="undefined" fill="#000000"/>
  <ellipse ry="1.5" rx="15" id="svg_4" cy="551.5" cx="540" fill="rgb(45, 74, 206)"/>
  <ellipse ry="0.5" rx="0.5" id="svg_5" cy="472.5" cx="390.5" fill="rgb(45, 74, 206)"/>
  <ellipse stroke="null" ry="0.5" rx="1" id="svg_6" cy="469.5" cx="480" fill="rgb(45, 74, 206)"/>
 </g>
</svg>